^C:\USERS\DAMIEN\DESKTOP\PROJET_CPP_AUVRAY_GUILLOT\PROJET_CPP_AUVRAY_GUILLOT\PROJET_CPP_AUVRAY_GUILLOT\CEXCEPTION.CPP|C:\USERS\DAMIEN\DESKTOP\PROJET_CPP_AUVRAY_GUILLOT\PROJET_CPP_AUVRAY_GUILLOT\PROJET_CPP_AUVRAY_GUILLOT\CFILE.CPP|C:\USERS\DAMIEN\DESKTOP\PROJET_CPP_AUVRAY_GUILLOT\PROJET_CPP_AUVRAY_GUILLOT\PROJET_CPP_AUVRAY_GUILLOT\MAIN.CPP
C:\USERS\DAMIEN\DESKTOP\PROJET_CPP_AUVRAY_GUILLOT\PROJET_CPP_AUVRAY_GUILLOT\PROJET_CPP_AUVRAY_GUILLOT\RELEASE\MAIN.OBJ
C:\USERS\DAMIEN\DESKTOP\PROJET_CPP_AUVRAY_GUILLOT\PROJET_CPP_AUVRAY_GUILLOT\PROJET_CPP_AUVRAY_GUILLOT\RELEASE\CFILE.OBJ
C:\USERS\DAMIEN\DESKTOP\PROJET_CPP_AUVRAY_GUILLOT\PROJET_CPP_AUVRAY_GUILLOT\PROJET_CPP_AUVRAY_GUILLOT\RELEASE\CEXCEPTION.OBJ
^C:\USERS\DAMIEN\DESKTOP\PROJET_CPP_AUVRAY_GUILLOT\PROJET_CPP_AUVRAY_GUILLOT\PROJET_CPP_AUVRAY_GUILLOT\CEXCEPTION.CPP
C:\USERS\DAMIEN\DESKTOP\PROJET_CPP_AUVRAY_GUILLOT\PROJET_CPP_AUVRAY_GUILLOT\PROJET_CPP_AUVRAY_GUILLOT\RELEASE\VC110.PDB
^C:\USERS\DAMIEN\DESKTOP\PROJET_CPP_AUVRAY_GUILLOT\PROJET_CPP_AUVRAY_GUILLOT\PROJET_CPP_AUVRAY_GUILLOT\CFILE.CPP
C:\USERS\DAMIEN\DESKTOP\PROJET_CPP_AUVRAY_GUILLOT\PROJET_CPP_AUVRAY_GUILLOT\PROJET_CPP_AUVRAY_GUILLOT\RELEASE\VC110.PDB
^C:\USERS\DAMIEN\DESKTOP\PROJET_CPP_AUVRAY_GUILLOT\PROJET_CPP_AUVRAY_GUILLOT\PROJET_CPP_AUVRAY_GUILLOT\MAIN.CPP
C:\USERS\DAMIEN\DESKTOP\PROJET_CPP_AUVRAY_GUILLOT\PROJET_CPP_AUVRAY_GUILLOT\PROJET_CPP_AUVRAY_GUILLOT\RELEASE\VC110.PDB
