^C:\USERS\DAMIEN\DESKTOP\PROJET_CPP_AUVRAY_GUILLOT\PROJET_CPP_AUVRAY_GUILLOT\PROJET_CPP_AUVRAY_GUILLOT\RELEASE\CEXCEPTION.OBJ|C:\USERS\DAMIEN\DESKTOP\PROJET_CPP_AUVRAY_GUILLOT\PROJET_CPP_AUVRAY_GUILLOT\PROJET_CPP_AUVRAY_GUILLOT\RELEASE\CFILE.OBJ|C:\USERS\DAMIEN\DESKTOP\PROJET_CPP_AUVRAY_GUILLOT\PROJET_CPP_AUVRAY_GUILLOT\PROJET_CPP_AUVRAY_GUILLOT\RELEASE\MAIN.OBJ
C:\USERS\DAMIEN\DESKTOP\PROJET_CPP_AUVRAY_GUILLOT\PROJET_CPP_AUVRAY_GUILLOT\RELEASE\PROJET_CPP_AUVRAY_GUILLOT.EXE
C:\USERS\DAMIEN\DESKTOP\PROJET_CPP_AUVRAY_GUILLOT\PROJET_CPP_AUVRAY_GUILLOT\RELEASE\PROJET_CPP_AUVRAY_GUILLOT.PDB
